{
  "api_id": "a12eb250-c1db-11ea-ae24-0242ac110004",
  "meta": {
    "count": 285,
    "limit": 20,
    "next": "/v1/Account/MA123456789012345678/MultiPartyCall/?limit=20&offset=20",
    "offset": 0,
    "previous": null
  },
  "objects": [
    {
      "billed_amount": "0.00500",
      "billed_duration": 60,
      "creation_time": "2020-07-09 07:37:59+00:00",
      "duration": 30,
      "end_time": "2020-07-09 07:38:29+00:00",
      "friendly_name": "testMPC2",
      "mpc_uuid": "5eaca850-ef9c-4331-9d86-5aeb766f397f",
      "participants": "/v1/Account/MA123456789012345678/MultiPartyCall/uuid_5eaca850-ef9c-4331-9d86-5aeb766f397f/Participant/",
      "recording": null,
      "resource_uri": "/v1/Account/MA123456789012345678/MultiPartyCall/uuid_5eaca850-ef9c-4331-9d86-5aeb766f397f/",
      "start_time": "2020-07-09 07:37:59+00:00",
      "status": "Ended",
      "stay_alone": true,
      "sub_account": null,
      "termination_cause": "No Active Participants",
      "termination_cause_code": 1000
    },
    {
      "billed_amount": "0.00500",
      "billed_duration": 60,
      "creation_time": "2020-07-09 07:36:44+00:00",
      "duration": 30,
      "end_time": "2020-07-09 07:37:14+00:00",
      "friendly_name": "testMPC3",
      "mpc_uuid": "7292c495-9551-4169-a12b-0975a35a63e0",
      "participants": "/v1/Account/MA123456789012345678/MultiPartyCall/uuid_7292c495-9551-4169-a12b-0975a35a63e0/Participant/",
      "recording": null,
      "resource_uri": "/v1/Account/MA123456789012345678/MultiPartyCall/uuid_7292c495-9551-4169-a12b-0975a35a63e0/",
      "start_time": "2020-07-09 07:36:44+00:00",
      "status": "Ended",
      "stay_alone": true,
      "sub_account": null,
      "termination_cause": "No Active Participants",
      "termination_cause_code": 1000
    },
    {
      "billed_amount": "0.01500",
      "billed_duration": 180,
      "creation_time": "2020-07-09 07:35:21+00:00",
      "duration": 30,
      "end_time": "2020-07-09 07:35:51+00:00",
      "friendly_name": "testMPC4",
      "mpc_uuid": "72bdf87b-84de-4f3e-91c2-65e8ca7e48aa",
      "participants": "/v1/Account/MA123456789012345678/MultiPartyCall/uuid_72bdf87b-84de-4f3e-91c2-65e8ca7e48aa/Participant/",
      "recording": null,
      "resource_uri": "/v1/Account/MA123456789012345678/MultiPartyCall/uuid_72bdf87b-84de-4f3e-91c2-65e8ca7e48aa/",
      "start_time": "2020-07-09 07:35:21+00:00",
      "status": "Ended",
      "stay_alone": false,
      "sub_account": null,
      "termination_cause": "No Active Participants",
      "termination_cause_code": 1000
    },
    {
      "billed_amount": "0.01500",
      "billed_duration": 180,
      "creation_time": "2020-07-09 07:33:59+00:00",
      "duration": 30,
      "end_time": "2020-07-09 07:34:29+00:00",
      "friendly_name": "testMPC5",
      "mpc_uuid": "bc41ec27-e994-4914-93e5-c3ee47baf37a",
      "participants": "/v1/Account/MA123456789012345678/MultiPartyCall/uuid_bc41ec27-e994-4914-93e5-c3ee47baf37a/Participant/",
      "recording": null,
      "resource_uri": "/v1/Account/MA123456789012345678/MultiPartyCall/uuid_bc41ec27-e994-4914-93e5-c3ee47baf37a/",
      "start_time": "2020-07-09 07:33:59+00:00",
      "status": "Ended",
      "stay_alone": false,
      "sub_account": null,
      "termination_cause": "No Active Participants",
      "termination_cause_code": 1000
    },
    {
      "billed_amount": "0.01500",
      "billed_duration": 180,
      "creation_time": "2020-07-09 07:32:22+00:00",
      "duration": 30,
      "end_time": "2020-07-09 07:32:52+00:00",
      "friendly_name": "testMPC6",
      "mpc_uuid": "464a3462-6c04-4706-a5dd-0851325a4842",
      "participants": "/v1/Account/MA123456789012345678/MultiPartyCall/uuid_464a3462-6c04-4706-a5dd-0851325a4842/Participant/",
      "recording": null,
      "resource_uri": "/v1/Account/MA123456789012345678/MultiPartyCall/uuid_464a3462-6c04-4706-a5dd-0851325a4842/",
      "start_time": "2020-07-09 07:32:22+00:00",
      "status": "Ended",
      "stay_alone": true,
      "sub_account": null,
      "termination_cause": "No Active Participants",
      "termination_cause_code": 1000
    },
    {
      "billed_amount": "0.00500",
      "billed_duration": 60,
      "creation_time": "2020-07-09 07:29:27+00:00",
      "duration": 30,
      "end_time": "2020-07-09 07:29:57+00:00",
      "friendly_name": "testMPC7",
      "mpc_uuid": "eb1baa83-1a2b-42a3-99b1-2186631bc730",
      "participants": "/v1/Account/MA123456789012345678/MultiPartyCall/uuid_eb1baa83-1a2b-42a3-99b1-2186631bc730/Participant/",
      "recording": null,
      "resource_uri": "/v1/Account/MA123456789012345678/MultiPartyCall/uuid_eb1baa83-1a2b-42a3-99b1-2186631bc730/",
      "start_time": "2020-07-09 07:29:27+00:00",
      "status": "Ended",
      "stay_alone": true,
      "sub_account": null,
      "termination_cause": "No Active Participants",
      "termination_cause_code": 1000
    },
    {
      "billed_amount": "0.01500",
      "billed_duration": 180,
      "creation_time": "2020-07-09 07:28:36+00:00",
      "duration": 31,
      "end_time": "2020-07-09 07:29:07+00:00",
      "friendly_name": "testMPC8",
      "mpc_uuid": "366f4d2b-376a-4bb2-9b00-8a3d486b3bb6",
      "participants": "/v1/Account/MA123456789012345678/MultiPartyCall/uuid_366f4d2b-376a-4bb2-9b00-8a3d486b3bb6/Participant/",
      "recording": null,
      "resource_uri": "/v1/Account/MA123456789012345678/MultiPartyCall/uuid_366f4d2b-376a-4bb2-9b00-8a3d486b3bb6/",
      "start_time": "2020-07-09 07:28:36+00:00",
      "status": "Ended",
      "stay_alone": true,
      "sub_account": null,
      "termination_cause": "No Active Participants",
      "termination_cause_code": 1000
    },
    {
      "billed_amount": "0.01500",
      "billed_duration": 180,
      "creation_time": "2020-07-09 07:27:25+00:00",
      "duration": 31,
      "end_time": "2020-07-09 07:27:56+00:00",
      "friendly_name": "testMPC9",
      "mpc_uuid": "9a5c1691-0a16-40c1-a496-20658f4593c6",
      "participants": "/v1/Account/MA123456789012345678/MultiPartyCall/uuid_9a5c1691-0a16-40c1-a496-20658f4593c6/Participant/",
      "recording": null,
      "resource_uri": "/v1/Account/MA123456789012345678/MultiPartyCall/uuid_9a5c1691-0a16-40c1-a496-20658f4593c6/",
      "start_time": "2020-07-09 07:27:25+00:00",
      "status": "Ended",
      "stay_alone": true,
      "sub_account": null,
      "termination_cause": "No Active Participants",
      "termination_cause_code": 1000
    },
    {
      "billed_amount": "0.01000",
      "billed_duration": 120,
      "creation_time": "2020-07-09 07:25:40+00:00",
      "duration": 63,
      "end_time": "2020-07-09 07:26:43+00:00",
      "friendly_name": "testMPC10",
      "mpc_uuid": "3e353246-c4ba-485b-a547-e65dfdca0b47",
      "participants": "/v1/Account/MA123456789012345678/MultiPartyCall/uuid_3e353246-c4ba-485b-a547-e65dfdca0b47/Participant/",
      "recording": null,
      "resource_uri": "/v1/Account/MA123456789012345678/MultiPartyCall/uuid_3e353246-c4ba-485b-a547-e65dfdca0b47/",
      "start_time": "2020-07-09 07:25:40+00:00",
      "status": "Ended",
      "stay_alone": true,
      "sub_account": null,
      "termination_cause": "No Active Participants",
      "termination_cause_code": 1000
    },
    {
      "billed_amount": "0.00500",
      "billed_duration": 60,
      "creation_time": "2020-07-09 07:24:37+00:00",
      "duration": 30,
      "end_time": "2020-07-09 07:25:07+00:00",
      "friendly_name": "testMPC11",
      "mpc_uuid": "18905d56-79c8-41d4-a840-25feff71070e",
      "participants": "/v1/Account/MA123456789012345678/MultiPartyCall/uuid_18905d56-79c8-41d4-a840-25feff71070e/Participant/",
      "recording": null,
      "resource_uri": "/v1/Account/MA123456789012345678/MultiPartyCall/uuid_18905d56-79c8-41d4-a840-25feff71070e/",
      "start_time": "2020-07-09 07:24:37+00:00",
      "status": "Ended",
      "stay_alone": true,
      "sub_account": null,
      "termination_cause": "No Active Participants",
      "termination_cause_code": 1000
    },
    {
      "billed_amount": "0.00500",
      "billed_duration": 60,
      "creation_time": "2020-07-09 07:23:37+00:00",
      "duration": 30,
      "end_time": "2020-07-09 07:24:07+00:00",
      "friendly_name": "testMPC12",
      "mpc_uuid": "b0c84523-2735-46ab-8267-43a22429c2c0",
      "participants": "/v1/Account/MA123456789012345678/MultiPartyCall/uuid_b0c84523-2735-46ab-8267-43a22429c2c0/Participant/",
      "recording": null,
      "resource_uri": "/v1/Account/MA123456789012345678/MultiPartyCall/uuid_b0c84523-2735-46ab-8267-43a22429c2c0/",
      "start_time": "2020-07-09 07:23:37+00:00",
      "status": "Ended",
      "stay_alone": true,
      "sub_account": null,
      "termination_cause": "No Active Participants",
      "termination_cause_code": 1000
    },
    {
      "billed_amount": "0.00500",
      "billed_duration": 60,
      "creation_time": "2020-07-09 07:22:23+00:00",
      "duration": 30,
      "end_time": "2020-07-09 07:22:53+00:00",
      "friendly_name": "testMPC13",
      "mpc_uuid": "872ee2a9-ce5f-445d-80c5-9fc02a807985",
      "participants": "/v1/Account/MA123456789012345678/MultiPartyCall/uuid_872ee2a9-ce5f-445d-80c5-9fc02a807985/Participant/",
      "recording": null,
      "resource_uri": "/v1/Account/MA123456789012345678/MultiPartyCall/uuid_872ee2a9-ce5f-445d-80c5-9fc02a807985/",
      "start_time": "2020-07-09 07:22:23+00:00",
      "status": "Ended",
      "stay_alone": false,
      "sub_account": null,
      "termination_cause": "No Active Participants",
      "termination_cause_code": 1000
    },
    {
      "billed_amount": "0.01500",
      "billed_duration": 180,
      "creation_time": "2020-07-09 07:21:35+00:00",
      "duration": 31,
      "end_time": "2020-07-09 07:22:06+00:00",
      "friendly_name": "testMPC14",
      "mpc_uuid": "44760731-e25c-49ed-9c28-f84fd44fb30a",
      "participants": "/v1/Account/MA123456789012345678/MultiPartyCall/uuid_44760731-e25c-49ed-9c28-f84fd44fb30a/Participant/",
      "recording": null,
      "resource_uri": "/v1/Account/MA123456789012345678/MultiPartyCall/uuid_44760731-e25c-49ed-9c28-f84fd44fb30a/",
      "start_time": "2020-07-09 07:21:35+00:00",
      "status": "Ended",
      "stay_alone": false,
      "sub_account": null,
      "termination_cause": "Stay Alone Not Permitted",
      "termination_cause_code": 1010
    },
    {
      "billed_amount": "0.00500",
      "billed_duration": 60,
      "creation_time": "2020-07-09 07:21:25+00:00",
      "duration": 1,
      "end_time": "2020-07-09 07:21:26+00:00",
      "friendly_name": "testMPC15",
      "mpc_uuid": "72f52dfb-5819-4d4a-820a-5bc5a7370c0d",
      "participants": "/v1/Account/MA123456789012345678/MultiPartyCall/uuid_72f52dfb-5819-4d4a-820a-5bc5a7370c0d/Participant/",
      "recording": null,
      "resource_uri": "/v1/Account/MA123456789012345678/MultiPartyCall/uuid_72f52dfb-5819-4d4a-820a-5bc5a7370c0d/",
      "start_time": "2020-07-09 07:21:25+00:00",
      "status": "Ended",
      "stay_alone": false,
      "sub_account": null,
      "termination_cause": "Hangup API Triggered",
      "termination_cause_code": 3000
    },
    {
      "billed_amount": "0.01000",
      "billed_duration": 120,
      "creation_time": "2020-07-09 07:19:42+00:00",
      "duration": 62,
      "end_time": "2020-07-09 07:20:44+00:00",
      "friendly_name": "testMPC16",
      "mpc_uuid": "fdf33748-176f-4be1-a895-7037ddc68a8e",
      "participants": "/v1/Account/MA123456789012345678/MultiPartyCall/uuid_fdf33748-176f-4be1-a895-7037ddc68a8e/Participant/",
      "recording": null,
      "resource_uri": "/v1/Account/MA123456789012345678/MultiPartyCall/uuid_fdf33748-176f-4be1-a895-7037ddc68a8e/",
      "start_time": "2020-07-09 07:19:42+00:00",
      "status": "Ended",
      "stay_alone": false,
      "sub_account": null,
      "termination_cause": "No Active Participants",
      "termination_cause_code": 1000
    },
    {
      "billed_amount": "0.00500",
      "billed_duration": 60,
      "creation_time": "2020-07-09 07:18:46+00:00",
      "duration": 30,
      "end_time": "2020-07-09 07:19:16+00:00",
      "friendly_name": "testMPC17",
      "mpc_uuid": "fcbaba3f-1974-4d77-8ff3-e13e02f89022",
      "participants": "/v1/Account/MA123456789012345678/MultiPartyCall/uuid_fcbaba3f-1974-4d77-8ff3-e13e02f89022/Participant/",
      "recording": null,
      "resource_uri": "/v1/Account/MA123456789012345678/MultiPartyCall/uuid_fcbaba3f-1974-4d77-8ff3-e13e02f89022/",
      "start_time": "2020-07-09 07:18:46+00:00",
      "status": "Ended",
      "stay_alone": false,
      "sub_account": null,
      "termination_cause": "No Active Participants",
      "termination_cause_code": 1000
    },
    {
      "billed_amount": "0.00500",
      "billed_duration": 60,
      "creation_time": "2020-07-09 07:17:50+00:00",
      "duration": 30,
      "end_time": "2020-07-09 07:18:20+00:00",
      "friendly_name": "testMPC189",
      "mpc_uuid": "29ad7195-aa9f-420d-b745-878cfb9fe0e3",
      "participants": "/v1/Account/MA123456789012345678/MultiPartyCall/uuid_29ad7195-aa9f-420d-b745-878cfb9fe0e3/Participant/",
      "recording": null,
      "resource_uri": "/v1/Account/MA123456789012345678/MultiPartyCall/uuid_29ad7195-aa9f-420d-b745-878cfb9fe0e3/",
      "start_time": "2020-07-09 07:17:50+00:00",
      "status": "Ended",
      "stay_alone": false,
      "sub_account": null,
      "termination_cause": "No Active Participants",
      "termination_cause_code": 1000
    },
    {
      "billed_amount": "0.01000",
      "billed_duration": 120,
      "creation_time": "2020-07-09 07:16:16+00:00",
      "duration": 48,
      "end_time": "2020-07-09 07:17:04+00:00",
      "friendly_name": "testMPC18",
      "mpc_uuid": "61b4e3b7-0319-469c-b306-62b59b5570d2",
      "participants": "/v1/Account/MA123456789012345678/MultiPartyCall/uuid_61b4e3b7-0319-469c-b306-62b59b5570d2/Participant/",
      "recording": null,
      "resource_uri": "/v1/Account/MA123456789012345678/MultiPartyCall/uuid_61b4e3b7-0319-469c-b306-62b59b5570d2/",
      "start_time": "2020-07-09 07:16:16+00:00",
      "status": "Ended",
      "stay_alone": false,
      "sub_account": null,
      "termination_cause": "Hangup API Triggered",
      "termination_cause_code": 3000
    },
    {
      "billed_amount": "0.01000",
      "billed_duration": 120,
      "creation_time": "2020-07-09 07:15:05+00:00",
      "duration": 36,
      "end_time": "2020-07-09 07:15:41+00:00",
      "friendly_name": "testMPC19",
      "mpc_uuid": "63e54509-7e27-444d-b062-f9d67a1d2637",
      "participants": "/v1/Account/MA123456789012345678/MultiPartyCall/uuid_63e54509-7e27-444d-b062-f9d67a1d2637/Participant/",
      "recording": null,
      "resource_uri": "/v1/Account/MA123456789012345678/MultiPartyCall/uuid_63e54509-7e27-444d-b062-f9d67a1d2637/",
      "start_time": "2020-07-09 07:15:31+00:00",
      "status": "Ended",
      "stay_alone": false,
      "sub_account": null,
      "termination_cause": "Hangup API Triggered",
      "termination_cause_code": 3000
    },
    {
      "billed_amount": "0.01000",
      "billed_duration": 120,
      "creation_time": "2020-07-09 07:13:35+00:00",
      "duration": 24,
      "end_time": "2020-07-09 07:13:59+00:00",
      "friendly_name": "testMPC20",
      "mpc_uuid": "ba6741ba-28bc-4718-aa15-71bf8937d117",
      "participants": "/v1/Account/MA123456789012345678/MultiPartyCall/uuid_ba6741ba-28bc-4718-aa15-71bf8937d117/Participant/",
      "recording": null,
      "resource_uri": "/v1/Account/MA123456789012345678/MultiPartyCall/uuid_ba6741ba-28bc-4718-aa15-71bf8937d117/",
      "start_time": "2020-07-09 07:13:47+00:00",
      "status": "Ended",
      "stay_alone": false,
      "sub_account": null,
      "termination_cause": "Hangup API Triggered",
      "termination_cause_code": 3000
    }
  ]
}